%!PS-Adobe-2.0
%%Title: Synopsys Schematic
%%Creator: Synopsys
%%CreationDate: Tue Oct  6 20:09:19 2009
%%For: kralph
%%Pages: (atend)
%%BoundingBox: 28 28 584 764
%%EndComments
/start_page {/saved_state save def 1 setlinecap} def
/end_page {saved_state restore showpage} def
/A {newpath arc stroke} def
/AN {newpath arcn stroke} def
/L {newpath moveto lineto stroke} def
/LK {newpath 1024 mul exch 1024 mul exch moveto 1024 mul
     exch 1024 mul exch lineto stroke} def
%%EndProlog
%%Page: 1 1
start_page
gsave
90 rotate
0.00737179 0.00737179 scale
92299.3 -55205.6 translate
newpath
-88501 -9600 moveto
-88501 36992 lineto
11339 36992 lineto
11339 -9600 lineto
closepath
clip
50 dict
begin
/S0 {gsave translate
200 setlinewidth
-512 -256 -768 0 L
-768 0 -512 256 L
0 0 -1 0 LK
grestore} def

-9216 21504 S0
-9216 25600 S0
-9216 29696 S0
-9216 33792 S0
/S1 {gsave translate
300 setlinewidth
0 -640 0 640 L
0 640 1280 640 L
0 -640 1280 -640 L
1280 -640 2560 0 L
1280 640 2560 0 L
grestore} def

-6144 33792 S1
/S2 {gsave translate
0 setlinewidth
522 675 460 768 L
153 768 460 768 L
153 768 92 706 L
92 614 92 706 L
92 614 522 460 L
522 368 522 460 L
522 368 460 307 L
153 307 460 307 L
153 307 92 368 L
grestore} def

-3072 33152 S2
/S3 {gsave translate
0 setlinewidth
92 368 92 768 L
92 368 153 307 L
153 307 460 307 L
460 307 522 368 L
522 368 522 768 L
grestore} def

-2253 33152 S3
/S4 {gsave translate
0 setlinewidth
92 307 92 706 L
92 706 153 768 L
153 768 460 768 L
460 768 522 706 L
522 307 522 706 L
307 552 307 768 L
grestore} def

-1434 33152 S4
/S5 {gsave translate
0 setlinewidth
307 1075 460 1075 L
307 307 307 1075 L
307 307 460 307 L
grestore} def

-615 33152 S5
/S6 {gsave translate
0 setlinewidth
92 921 92 1013 L
92 1013 153 1075 L
153 1075 460 1075 L
460 1075 522 1013 L
522 768 522 1013 L
522 768 460 691 L
245 691 460 691 L
460 691 522 614 L
522 368 522 614 L
522 368 460 307 L
153 307 460 307 L
153 307 92 368 L
92 368 92 460 L
grestore} def

204 33152 S6
/S7 {gsave translate
0 setlinewidth
307 537 30 0 -360 AN
307 844 30 0 -360 AN
grestore} def

1023 33152 S7
/S8 {gsave translate
0 setlinewidth
92 368 92 1013 L
92 368 153 307 L
153 307 460 307 L
460 307 522 368 L
522 368 522 1013 L
522 1013 460 1075 L
153 1075 460 1075 L
153 1075 92 1013 L
522 921 92 460 L
grestore} def

1842 33152 S8
/S9 {gsave translate
0 setlinewidth
153 1075 307 1075 L
307 307 307 1075 L
153 307 307 307 L
grestore} def

2661 33152 S9
/S10 {gsave translate
0 setlinewidth
-256 -256 256 -256 L
256 -256 256 256 L
-256 256 256 256 L
-256 -256 -256 256 L
-256 -256 256 256 L
256 -256 -256 256 L
grestore} def

-8192 33792 S10
-8192 33792 S10
-8192 29696 S10
/S11 {gsave translate
100 setlinewidth
0 -640 0 640 L
0 640 1280 640 L
0 -640 1280 -640 L
1280 -640 2560 0 L
1280 640 2560 0 L
grestore} def

-6144 23552 S11
/S12 {gsave translate
0 setlinewidth
522 706 460 768 L
153 768 460 768 L
153 768 92 706 L
92 368 92 706 L
92 368 153 307 L
153 307 460 307 L
460 307 522 368 L
grestore} def

-3072 22912 S12
/S13 {gsave translate
0 setlinewidth
92 768 460 768 L
460 768 522 706 L
522 307 522 706 L
153 307 522 307 L
153 307 92 368 L
92 368 92 491 L
92 491 153 552 L
153 552 522 552 L
grestore} def

-2253 22912 S13
/S14 {gsave translate
0 setlinewidth
92 307 92 768 L
92 706 153 768 L
153 768 399 768 L
399 768 460 706 L
grestore} def

-1434 22912 S14
-615 22912 S14
/S15 {gsave translate
0 setlinewidth
92 768 307 307 L
522 768 153 0 L
grestore} def

204 22912 S15
/S16 {gsave translate
0 setlinewidth
0 307 614 307 L
grestore} def

1023 22912 S16
/S17 {gsave translate
0 setlinewidth
522 706 460 768 L
153 768 460 768 L
153 768 92 706 L
92 368 92 706 L
92 368 153 307 L
153 307 460 307 L
460 307 522 368 L
522 368 522 706 L
grestore} def

1842 22912 S17
2661 22912 S3
/S18 {gsave translate
0 setlinewidth
307 368 307 1075 L
307 368 368 307 L
368 307 460 307 L
460 307 522 368 L
153 768 491 768 L
grestore} def

3480 22912 S18
-8192 25600 S10
/S19 {gsave translate
0 setlinewidth
273 354 241 402 L
80 402 241 402 L
80 402 48 370 L
48 321 48 370 L
48 321 273 241 L
273 193 273 241 L
273 193 241 160 L
80 160 241 160 L
80 160 48 193 L
grestore} def

-10752 24576 S19
/S20 {gsave translate
0 setlinewidth
48 193 48 402 L
48 193 80 160 L
80 160 241 160 L
241 160 273 193 L
273 193 273 402 L
grestore} def

-10226 24576 S20
/S21 {gsave translate
0 setlinewidth
48 160 48 370 L
48 370 80 402 L
80 402 241 402 L
241 402 273 370 L
273 160 273 370 L
160 289 160 402 L
grestore} def

-9700 24576 S21
/S22 {gsave translate
0 setlinewidth
160 563 241 563 L
160 160 160 563 L
160 160 241 160 L
grestore} def

-9174 24576 S22
/S23 {gsave translate
0 setlinewidth
48 482 48 531 L
48 531 80 563 L
80 563 241 563 L
241 563 273 531 L
273 450 273 531 L
273 450 48 160 L
48 160 241 160 L
241 160 273 193 L
273 193 273 241 L
grestore} def

-8648 24576 S23
/S24 {gsave translate
0 setlinewidth
80 563 160 563 L
160 160 160 563 L
80 160 160 160 L
grestore} def

-8122 24576 S24
-10752 28672 S19
-10226 28672 S20
-9700 28672 S21
-9174 28672 S22
/S25 {gsave translate
0 setlinewidth
80 482 160 563 L
160 160 160 563 L
80 160 241 160 L
grestore} def

-8648 28672 S25
-8122 28672 S24
-10752 32768 S19
-10226 32768 S20
-9700 32768 S21
-9174 32768 S22
/S26 {gsave translate
0 setlinewidth
48 193 48 531 L
48 193 80 160 L
80 160 241 160 L
241 160 273 193 L
273 193 273 531 L
273 531 241 563 L
80 563 241 563 L
80 563 48 531 L
273 482 48 241 L
grestore} def

-8648 32768 S26
-8122 32768 S24
/S27 {gsave translate
0 setlinewidth
522 1013 460 1075 L
368 1075 460 1075 L
368 1075 307 1013 L
307 307 307 1013 L
153 768 491 768 L
grestore} def

-22322 23168 S27
-21503 23168 S3
/S28 {gsave translate
0 setlinewidth
245 1075 307 1075 L
307 307 307 1075 L
153 307 460 307 L
grestore} def

-20684 23168 S28
-19865 23168 S28
-19046 23168 S16
-18227 23168 S13
/S29 {gsave translate
0 setlinewidth
522 307 522 1075 L
153 768 522 768 L
153 768 92 706 L
92 368 92 706 L
92 368 153 307 L
153 307 522 307 L
grestore} def

-17408 23168 S29
-16589 23168 S29
/S30 {gsave translate
0 setlinewidth
92 552 460 552 L
460 552 522 614 L
522 614 522 706 L
522 706 460 768 L
153 768 460 768 L
153 768 92 706 L
92 368 92 706 L
92 368 153 307 L
153 307 460 307 L
460 307 522 368 L
grestore} def

-15770 23168 S30
-14951 23168 S14
-14132 23168 S16
-13313 23168 S8
/S31 {gsave translate
200 setlinewidth
512 256 768 0 L
768 0 512 -256 L
0 0 1 0 LK
grestore} def

-28672 26624 S31
-39936 26624 S10
-49152 26624 S10
/S32 {gsave translate
0 setlinewidth
48 402 241 402 L
241 402 273 370 L
273 160 273 370 L
80 160 273 160 L
80 160 48 193 L
48 193 48 257 L
48 257 80 289 L
80 289 273 289 L
grestore} def

-29184 25600 S32
/S33 {gsave translate
0 setlinewidth
273 160 273 563 L
80 402 273 402 L
80 402 48 370 L
48 193 48 370 L
48 193 80 160 L
80 160 273 160 L
grestore} def

-28658 25600 S33
-28132 25600 S33
/S34 {gsave translate
0 setlinewidth
48 289 241 289 L
241 289 273 321 L
273 321 273 370 L
273 370 241 402 L
80 402 241 402 L
80 402 48 370 L
48 193 48 370 L
48 193 80 160 L
80 160 241 160 L
241 160 273 193 L
grestore} def

-27606 25600 S34
/S35 {gsave translate
0 setlinewidth
48 160 48 402 L
48 370 80 402 L
80 402 241 402 L
241 402 273 370 L
273 160 273 370 L
grestore} def

-27080 25600 S35
-26554 25600 S33
/S36 {gsave translate
0 setlinewidth
0 160 321 160 L
grestore} def

-26028 25600 S36
/S37 {gsave translate
0 setlinewidth
273 370 241 402 L
80 402 241 402 L
80 402 48 370 L
48 193 48 370 L
48 193 80 160 L
80 160 241 160 L
241 160 273 193 L
273 193 273 370 L
grestore} def

-25502 25600 S37
-24976 25600 S35
-24450 25600 S34
-23924 25600 S22
/S38 {gsave translate
0 setlinewidth
48 482 48 531 L
48 531 80 563 L
80 563 241 563 L
241 563 273 531 L
273 402 273 531 L
273 402 241 362 L
128 362 241 362 L
241 362 273 321 L
273 193 273 321 L
273 193 241 160 L
80 160 241 160 L
80 160 48 193 L
48 193 48 241 L
grestore} def

-23398 25600 S38
-22872 25600 S24
-37888 21504 S31
-28672 22528 S31
-29184 21504 S32
-28658 21504 S33
-28132 21504 S33
-27606 21504 S34
-27080 21504 S35
-26554 21504 S33
-26028 21504 S36
/S39 {gsave translate
0 setlinewidth
160 193 160 563 L
160 193 193 160 L
193 160 241 160 L
241 160 273 193 L
80 402 257 402 L
grestore} def

-25502 21504 S39
/S40 {gsave translate
0 setlinewidth
48 193 48 402 L
48 193 80 160 L
80 160 241 160 L
241 160 273 193 L
273 193 273 402 L
160 160 160 273 L
grestore} def

-24976 21504 S40
-24450 21504 S37
-23924 21504 S22
-23398 21504 S38
-22872 21504 S24
-10752 20480 S19
-10226 20480 S20
-9700 20480 S21
-9174 20480 S22
-8648 20480 S38
-8122 20480 S24
/S41 {gsave translate
200 setlinewidth
-85760 -7680 0 -7680 L
0 -7680 0 -2560 L
-85760 -2560 0 -2560 L
-85760 -7680 -85760 -2560 L
-85760 -5120 0 -5120 L
-57174 -7680 -57174 -2560 L
-28587 -7680 -28587 -2560 L
grestore} def

4299 -0 S41
/S42 {gsave translate
200 setlinewidth
-3 -3 -3 3 LK
3 -3 3 3 LK
-3 -3 3 -3 LK
-3 3 3 3 LK
grestore} def

-17408 22528 S42
-30514 18048 S27
-29695 18048 S3
-28876 18048 S28
-28057 18048 S28
-27238 18048 S16
-26419 18048 S13
-25600 18048 S29
-24781 18048 S29
-23962 18048 S30
-23143 18048 S14
-22324 18048 S16
/S43 {gsave translate
0 setlinewidth
153 921 307 1075 L
307 307 307 1075 L
153 307 460 307 L
grestore} def

-21505 18048 S43
-23648 -4480 S29
-22829 -4480 S13
-22010 -4480 S18
-21191 -4480 S30
-20372 -4480 S7
/S44 {gsave translate
grestore} def

-19553 -4480 S44
-18734 -4480 S44
-17915 -4480 S43
-17096 -4480 S8
/S45 {gsave translate
0 setlinewidth
0 307 614 1075 L
grestore} def

-16277 -4480 S45
50 dict
begin
/S46 {gsave translate
0 setlinewidth
522 1013 460 1075 L
153 1075 460 1075 L
153 1075 92 1013 L
92 368 92 1013 L
92 368 153 307 L
153 307 460 307 L
460 307 522 368 L
522 368 522 706 L
522 706 460 768 L
153 768 460 768 L
153 768 92 706 L
grestore} def

-15458 -4480 S46
-14639 -4480 S45
/S47 {gsave translate
0 setlinewidth
92 921 92 1013 L
92 1013 153 1075 L
153 1075 460 1075 L
460 1075 522 1013 L
522 860 522 1013 L
522 860 92 307 L
92 307 460 307 L
460 307 522 368 L
522 368 522 460 L
grestore} def

-13820 -4480 S47
-13001 -4480 S8
-12182 -4480 S8
/S48 {gsave translate
0 setlinewidth
522 1013 460 1075 L
153 1075 460 1075 L
153 1075 92 1013 L
92 675 92 1013 L
92 675 153 614 L
153 614 460 614 L
460 614 522 675 L
522 368 522 1013 L
522 368 460 307 L
153 307 460 307 L
153 307 92 368 L
grestore} def

-11363 -4480 S48
-23648 -7040 S2
/S49 {gsave translate
0 setlinewidth
92 307 92 1075 L
92 706 153 768 L
153 768 460 768 L
460 768 522 706 L
522 307 522 706 L
grestore} def

-22829 -7040 S49
-22010 -7040 S30
-21191 -7040 S30
-20372 -7040 S18
-19553 -7040 S7
-18734 -7040 S44
-17915 -7040 S44
-17096 -7040 S43
-16277 -7040 S44
-15458 -7040 S17
-14639 -7040 S27
-13820 -7040 S44
-13001 -7040 S43
-25600 17408 S42
-38400 20480 S32
-37874 20480 S33
-37348 20480 S33
-36822 20480 S34
-36296 20480 S35
-35770 20480 S33
-35244 20480 S36
-34718 20480 S37
-34192 20480 S35
-33666 20480 S34
-33140 20480 S22
-32614 20480 S23
-32088 20480 S24
-47104 16384 S31
-37888 17408 S31
-38400 16384 S32
-37874 16384 S33
-37348 16384 S33
-36822 16384 S34
-36296 16384 S35
-35770 16384 S33
-35244 16384 S36
-34718 16384 S39
-34192 16384 S40
-33666 16384 S37
-33140 16384 S22
-32614 16384 S23
-32088 16384 S24
-34816 12288 S42
-47616 15360 S32
-47090 15360 S33
-46564 15360 S33
-46038 15360 S34
-45512 15360 S35
-44986 15360 S33
-44460 15360 S36
-43934 15360 S37
-43408 15360 S35
-42882 15360 S34
-42356 15360 S22
-41830 15360 S25
-41304 15360 S24
-39730 12928 S27
-38911 12928 S3
-38092 12928 S28
-37273 12928 S28
-36454 12928 S16
-35635 12928 S13
-34816 12928 S29
-33997 12928 S29
-33178 12928 S30
-32359 12928 S14
-31540 12928 S16
-30721 12928 S47
/S50 {gsave translate
300 setlinewidth
-2560 -640 -2560 640 L
-2560 640 -1280 640 L
-2560 -640 -1280 -640 L
-1280 -640 0 0 L
-1280 640 0 0 L
grestore} def

-53248 11264 S50
-51200 11264 S31
-47104 12288 S31
-47616 11264 S32
-47090 11264 S33
-46564 11264 S33
-46038 11264 S34
-45512 11264 S35
-44986 11264 S33
-44460 11264 S36
-43934 11264 S39
-43408 11264 S40
-42882 11264 S37
-42356 11264 S22
-41830 11264 S25
-41304 11264 S24
-52224 11264 S10
-52224 11264 S10
-68093 10624 S13
-67274 10624 S29
-66455 10624 S29
-65636 10624 S30
/S51 {gsave translate
0 setlinewidth
92 307 92 768 L
92 706 153 768 L
153 768 460 768 L
460 768 522 706 L
522 307 522 706 L
grestore} def

-64817 10624 S51
-63998 10624 S29
-63179 10624 S16
-62360 10624 S17
-61541 10624 S51
-60722 10624 S30
-59903 10624 S5
-59084 10624 S6
-58265 10624 S7
-57446 10624 S8
-56627 10624 S9
-44032 7168 S42
-51712 10240 S32
-51186 10240 S33
-50660 10240 S33
-50134 10240 S34
-49608 10240 S35
-49082 10240 S33
-48556 10240 S36
-48030 10240 S37
-47504 10240 S35
-46978 10240 S34
-46452 10240 S22
-45926 10240 S26
-45400 10240 S24
-38912 3072 S10
-48946 7808 S27
-48127 7808 S3
-47308 7808 S28
-46489 7808 S28
-45670 7808 S16
-44851 7808 S13
-44032 7808 S29
-43213 7808 S29
-42394 7808 S30
-41575 7808 S14
-40756 7808 S16
-39937 7808 S6
-51712 6144 S32
-51186 6144 S33
-50660 6144 S33
-50134 6144 S34
-49608 6144 S35
-49082 6144 S33
-48556 6144 S36
-48030 6144 S39
-47504 6144 S40
-46978 6144 S37
-46452 6144 S22
-45926 6144 S26
-45400 6144 S24
-53248 7168 S50
-51200 7168 S31
-52224 7168 S10
-52224 7168 S10
-68093 6528 S13
-67274 6528 S29
-66455 6528 S29
-65636 6528 S30
-64817 6528 S51
-63998 6528 S29
-63179 6528 S16
-62360 6528 S18
/S52 {gsave translate
0 setlinewidth
92 368 92 768 L
92 368 153 307 L
153 307 460 307 L
460 307 522 368 L
522 368 522 768 L
307 307 307 522 L
grestore} def

-61541 6528 S52
-60722 6528 S17
-59903 6528 S5
-59084 6528 S6
-58265 6528 S7
-57446 6528 S8
-56627 6528 S9
-52235 -4480 S29
-51416 -4480 S30
-50597 -4480 S2
/S53 {gsave translate
0 setlinewidth
245 768 307 768 L
307 307 307 768 L
153 307 460 307 L
307 983 30 0 -360 AN
grestore} def

-49778 -4480 S53
/S54 {gsave translate
0 setlinewidth
522 368 522 706 L
522 706 460 768 L
153 768 460 768 L
153 768 92 706 L
92 368 92 706 L
92 368 153 307 L
153 307 460 307 L
460 307 522 368 L
522 61 522 368 L
522 61 460 0 L
153 0 460 0 L
153 0 92 61 L
grestore} def

-48959 -4480 S54
-48140 -4480 S51
-47321 -4480 S30
-46502 -4480 S14
-45683 -4480 S7
-44864 -4480 S44
-44045 -4480 S44
-52235 -7040 S12
-51416 -7040 S17
-50597 -7040 S4
/S55 {gsave translate
0 setlinewidth
92 0 92 768 L
92 706 153 768 L
153 768 460 768 L
460 768 522 706 L
522 368 522 706 L
522 368 460 307 L
153 307 460 307 L
153 307 92 368 L
grestore} def

-49778 -7040 S55
-48959 -7040 S13
-48140 -7040 S51
-47321 -7040 S15
-46502 -7040 S7
-45683 -7040 S44
-44864 -7040 S44
/S56 {gsave translate
100 setlinewidth
-2560 -640 -2560 640 L
-2560 640 -1280 640 L
-2560 -640 -1280 -640 L
-1280 -640 0 0 L
-1280 640 0 0 L
grestore} def

-53248 5120 S56
-62360 4480 S12
-61541 4480 S13
-60722 4480 S14
-59903 4480 S14
-59084 4480 S15
-58265 4480 S16
-57446 4480 S53
-56627 4480 S51
-48128 3072 S10
-80821 -4480 S29
-80002 -4480 S30
-79183 -4480 S2
-78364 -4480 S53
-77545 -4480 S54
-76726 -4480 S51
-75907 -4480 S7
-75088 -4480 S44
-74269 -4480 S44
-73450 -4480 S49
/S57 {gsave translate
0 setlinewidth
430 1075 92 614 L
92 614 522 614 L
430 307 430 1075 L
grestore} def

-72631 -4480 S57
/S58 {gsave translate
0 setlinewidth
92 307 92 1075 L
92 768 460 768 L
460 768 522 706 L
522 368 522 706 L
522 368 460 307 L
92 307 460 307 L
grestore} def

-71812 -4480 S58
-70993 -4480 S13
-80821 -7040 S18
-80002 -7040 S30
-79183 -7040 S12
-78364 -7040 S49
-77545 -7040 S51
-76726 -7040 S17
-75907 -7040 S28
-75088 -7040 S17
-74269 -7040 S54
-73450 -7040 S15
-72631 -7040 S7
-71812 -7040 S44
-70993 -7040 S44
200 setlinewidth
-8 21 -8 33 LK
0 setlinewidth
-13 6 -13 33 LK
-12 11 -12 29 LK
-11 16 -11 25 LK
-21 24 -21 26 LK
-21 18 -21 20 LK
-30 19 -30 21 LK
-30 13 -30 15 LK
200 setlinewidth
-29 3 -29 22 LK
0 setlinewidth
-39 14 -39 16 LK
-39 8 -39 10 LK
200 setlinewidth
-39 21 -39 26 LK
-38 3 -38 17 LK
0 setlinewidth
-48 9 -48 11 LK
200 setlinewidth
-48 16 -48 26 LK
-47 3 -47 12 LK
-51 3 -51 7 LK
-51 11 -51 26 LK
0 setlinewidth
-51 5 -48 5 LK
200 setlinewidth
-51 3 -29 3 LK
-51 26 -30 26 LK
0 setlinewidth
-13 23 -7 23 LK
-21 16 -11 16 LK
-30 11 -12 11 LK
-39 6 -13 6 LK
200 setlinewidth
-9 33 -8 33 LK
-9 29 -8 29 LK
-9 25 -8 25 LK
-9 21 -8 21 LK
-8 33 -6 33 LK
0 setlinewidth
-7 23 -6 23 LK
-14 21 -13 21 LK
-13 21 -10 21 LK
-14 23 -13 23 LK
-13 33 -10 33 LK
-12 29 -10 29 LK
-11 25 -10 25 LK
-22 16 -21 16 LK
-27 22 -21 22 LK
-21 22 -20 22 LK
-27 26 -21 26 LK
-21 24 -20 24 LK
-22 18 -21 18 LK
-21 20 -20 20 LK
-31 11 -30 11 LK
-36 17 -30 17 LK
-30 17 -28 17 LK
-36 21 -30 21 LK
-30 19 -28 19 LK
-31 13 -30 13 LK
-30 15 -28 15 LK
200 setlinewidth
-30 26 -28 26 LK
-29 22 -28 22 LK
0 setlinewidth
-40 6 -39 6 LK
-45 12 -39 12 LK
-39 12 -37 12 LK
-45 16 -39 16 LK
-39 14 -37 14 LK
-40 8 -39 8 LK
-39 10 -37 10 LK
200 setlinewidth
-39 21 -37 21 LK
-38 17 -37 17 LK
0 setlinewidth
-49 7 -48 7 LK
-48 7 -46 7 LK
-49 11 -48 11 LK
-48 9 -46 9 LK
-48 5 -46 5 LK
200 setlinewidth
-48 16 -46 16 LK
-47 12 -46 12 LK
0 setlinewidth
-52 5 -51 5 LK
200 setlinewidth
-52 7 -51 7 LK
-51 7 -50 7 LK
-52 11 -51 11 LK
-51 11 -50 11 LK
grestore
end
end
end_page
%%Trailer
%%Pages: 1
